<svg width="58" height="58" viewBox="0 0 58 58" version="1.1" xmlns="http://www.w3.org/2000/svg" xmlns:xlink="http://www.w3.org/1999/xlink">
<title>ico-tabs-add</title>
<desc>Created using Figma</desc>
<g id="Canvas" transform="translate(448 -4984)">
<clipPath id="clip-0" clip-rule="evenodd">
<path d="M -598 4405L -238 4405L -238 5045L -598 5045L -598 4405Z" fill="#FFFFFF"/>
</clipPath>
<g id="Riwayat Eviden" clip-path="url(#clip-0)">
<g id="Menu Bar">
<g id="Lapor">
<g id="np_plus_678260_000000">
<g id="Ellipse">
<use xlink:href="#path0_fill" transform="translate(-441 4990)" fill="#0052A8"/>
</g>
<g id="Vector">
<use xlink:href="#path1_fill" transform="translate(-427.444 5004.56)" fill="#FFFFFF"/>
</g>
</g>
</g>
</g>
</g>
</g>
<defs>
<path id="path0_fill" d="M 45 22.5C 45 34.9264 34.9264 45 22.5 45C 10.0736 45 0 34.9264 0 22.5C 0 10.0736 10.0736 0 22.5 0C 34.9264 0 45 10.0736 45 22.5Z"/>
<path id="path1_fill" d="M 14.7778 10.5556L 10.5556 10.5556L 10.5556 14.7778C 10.5556 15.9422 9.60885 16.8889 8.44444 16.8889C 7.28004 16.8889 6.33333 15.9422 6.33333 14.7778L 6.33333 10.5556L 2.11111 10.5556C 0.946707 10.5556 0 9.60885 0 8.44444C 0 7.28004 0.946707 6.33333 2.11111 6.33333L 6.33333 6.33333L 6.33333 2.11111C 6.33333 0.946707 7.28004 0 8.44444 0C 9.60885 0 10.5556 0.946707 10.5556 2.11111L 10.5556 6.33333L 14.7778 6.33333C 15.9422 6.33333 16.8889 7.28004 16.8889 8.44444C 16.8889 9.60885 15.9422 10.5556 14.7778 10.5556Z"/>
</defs>
</svg>
